module gitlab.com/jonatasbaldin/cs

go 1.13

require (
	github.com/gin-contrib/sse v0.1.0 // indirect
	github.com/gin-gonic/gin v1.4.0
	github.com/golang/protobuf v1.3.2 // indirect
	github.com/google/uuid v1.1.1
	github.com/jinzhu/gorm v1.9.11
	github.com/json-iterator/go v1.1.8 // indirect
	github.com/kelseyhightower/envconfig v1.4.0
	github.com/mattn/go-isatty v0.0.10 // indirect
	github.com/stretchr/testify v1.4.0
	github.com/ugorji/go v1.1.7 // indirect
	golang.org/x/sys v0.0.0-20191105142833-ac3223d80179 // indirect
	google.golang.org/appengine v1.4.0
	gopkg.in/yaml.v2 v2.2.5 // indirect
)
